Time and Space Progress Journal - 1 Assignment 1
…
# Add id_count to startup
startup_country <- startup %>% 
  mutate(id_count) %>% 
  separate_rows(`Investor's_Origin`, sep = ", ") %>% 
  mutate(new_value = `Deal_Value_(USD)` / id_count) %>% 
  mutate(country_name = gsub(pattern = "\r\n", replacement = "", x = .$`Investor's_Origin`)) %>% 
  filter(country_name != "NA")

startup_country_graph <- startup_country %>%   
  group_by(country_name) %>% 
  summarise(country_total = sum(new_value, na.rm = TRUE), country_number = n()) %>%
  arrange(desc(country_total)) %>% 
  print()

# A tibble: 22 × 3
   country_name country_total country_number
   <chr>                <dbl>          <int>
 1 USA            1851560871              25
 2 UAE             642850000               4
 3 Qatar           359695000               4
 4 Japan           358750000               1
 5 Turkey          273386559.            254
 6 UK              137790314.             13
 7 Brazil           42666667.              1
 8 France           32000000               2
 9 Finland          10000000               1
10 Germany           7635684.              4
# … with 12 more rows
…
