Time and Space Progress Journal - 2 Data Preparation
…
names(company_info) <- header_new
company_info <-  company_info %>% 
  filter(!(sector %in% c("", "Türkiye")))

company_info <- company_info %>% 
  pivot_longer(-c(sector, size)) %>% 
  separate(name, into = c("year", "number"), sep = "/")

company_info$number <- company_info$number %>% 
  gsub(pattern = ".companıes", replacement = "_companies")

company_info %>% 
  pivot_wider(names_from = number, values_from = value)

# A tibble: 1,105 × 5
   sector                              size  year  Number_of_companies Number_…¹
   <chr>                               <chr> <chr> <chr>               <chr>    
 1 A-Agrıculture, forestry and fishing Total 2009  5558                32584    
 2 A-Agrıculture, forestry and fishing Total 2010  6731                36849    
 3 A-Agrıculture, forestry and fishing Total 2011  7198                41546    
 4 A-Agrıculture, forestry and fishing Total 2012  7312                44814    
 5 A-Agrıculture, forestry and fishing Total 2013  7682                47135    
 6 A-Agrıculture, forestry and fishing Total 2014  7944                50240    
 7 A-Agrıculture, forestry and fishing Total 2015  8478                54175    
 8 A-Agrıculture, forestry and fishing Total 2016  9226                57025    
 9 A-Agrıculture, forestry and fishing Total 2017  9690                58203    
10 A-Agrıculture, forestry and fishing Total 2018  10194               63918    
# … with 1,095 more rows, and abbreviated variable name ¹​Number_of_employees
…
employment <- employment %>% 
  select(-c("D+E", "S+T+U")) %>% 
  pivot_longer(-c("gender", "date"), names_to = "sector_code", values_to = "number") %>% 
  left_join(., sector_info, by = "sector_code")

employment <- employment[!is.na(employment$sector_name),]

saveRDS(employment, "docs/Project_Data/employment.rds")

employment

# A tibble: 238 × 6
   gender date       sector_code number sector_name             group       
   <chr>  <date>     <chr>        <dbl> <chr>                   <chr>       
 1 female 2021-03-30 A             1766 Agriculture             Agriculture 
 2 female 2021-03-30 B                6 Mining                  Industry    
 3 female 2021-03-30 C             1399 Manufacturing           Industry    
 4 female 2021-03-30 F               74 Construction            Construction
 5 female 2021-03-30 G             1004 Wholesale_Retail_Trade  Services    
 6 female 2021-03-30 H              105 Transportation          Services    
 7 female 2021-03-30 I              309 Accomodation_Food       Services    
 8 female 2021-03-30 J               69 Information             Services    
 9 female 2021-03-30 L               68 Real_Estate             Services    
10 female 2021-03-30 M              395 Professional_Activities Services    
# … with 228 more rows
…
export <- export[!is.na(export[,2]),]

colnames(export) <- c("year", "sector_code", "sector_name", "export")

export$export <- gsub(pattern = "-", replacement = 0, export$export) %>% as.double()

export <-  export[export$sector_code %in% sector_info$sector_code,] %>% select(-sector_name)

export <- 
  left_join(export, sector_info, by = "sector_code") %>%
  select(sector_code, sector_name, group, everything())

export

# A tibble: 90 × 5
   sector_code sector_name             group        year      export
   <chr>       <chr>                   <chr>       <dbl>       <dbl>
 1 A           Agriculture             Agriculture  2022   5434049. 
 2 B           Mining                  Industry     2022   3508870. 
 3 C           Manufacturing           Industry     2022 178162765. 
 4 D           Electricity_Gas         Industry     2022    211875. 
 5 E           Water_Supply            Industry     2022    666611. 
 6 H           Transportation          Services     2022        15.0
 7 J           Information             Services     2022    157891. 
 8 M           Professional_Activities Services     2022       110. 
 9 R           Entertainment           Services     2022     10055. 
10 A           Agriculture             Agriculture  2021   7156041. 
# … with 80 more rows
…
import <- import[!is.na(import[,2]),]

colnames(import) <- c("year", "sector_code", "sector_name", "import")

import$import <- gsub(pattern = "-", replacement = 0, import$import) %>% as.double()

import <-  import[import$sector_code %in% sector_info$sector_code,] %>% select(-sector_name)

import <- 
  left_join(import, sector_info, by = "sector_code") %>%
  select(sector_code, sector_name, group, everything())
import

# A tibble: 89 × 5
   sector_code sector_name             group        year      import
   <chr>       <chr>                   <chr>       <dbl>       <dbl>
 1 A           Agriculture             Agriculture  2022  11311875. 
 2 B           Mining                  Industry     2022  58364861. 
 3 C           Manufacturing           Industry     2022 191327777. 
 4 D           Electricity_Gas         Industry     2022    217690. 
 5 E           Water_Supply            Industry     2022   9883865. 
 6 H           Transportation          Services     2022        15.1
 7 J           Information             Services     2022    128615. 
 8 M           Professional_Activities Services     2022      1261. 
 9 R           Entertainment           Services     2022     13120. 
10 A           Agriculture             Agriculture  2021  12082080. 
# … with 79 more rows
…
ppi_1 <- ppi_1 %>% 
  fill(1) %>% 
  select_if(function(col) !all(is.na(col)))

colnames(ppi_1)[1:2] <- c("year", "month")
ppi_1$date <- seq.Date(from = as.Date("2010-01-01"), to = as.Date("2022-10-01"), by = "month")
ppi_1 <- ppi_1[,c(-1,-2)]
ppi_1 <- ppi_1 %>% select(date, everything())

ppi_1 <- ppi_1 %>% select(date, (ncol(.)-3):ncol(.))

colnames(ppi_1) <-  colnames(ppi_1) %>% gsub("\\..*", "", .)
ppi_1

# A tibble: 154 × 5
   date           B     C     D     E
   <date>     <dbl> <dbl> <dbl> <dbl>
 1 2010-01-01  220.  161.  169.  149.
 2 2010-02-01  221.  162.  187.  149.
 3 2010-03-01  220.  165.  189.  151.
 4 2010-04-01  221.  166.  189.  151.
 5 2010-05-01  227.  166.  191.  154.
 6 2010-06-01  222.  165.  191.  157.
 7 2010-07-01  228.  165.  192.  157.
 8 2010-08-01  229.  165.  202.  155.
 9 2010-09-01  231.  166.  203.  155.
10 2010-10-01  228.  167.  202.  156.
# … with 144 more rows
…
colnames(ppi_2)[1:2] <- c("year", "month")

ppi_2$date <- seq.Date(from = as.Date("2017-01-01"), to = as.Date("2022-09-01"), by = "month")
ppi_2 <- ppi_2[,c(-1,-2)]
ppi_2 <- ppi_2 %>% select(date, everything())

ppi_2 <- ppi_2 %>% select(date, everything())
colnames(ppi_2) <-  colnames(ppi_2) %>% gsub("\\..*", "", .)
ppi_2

# A tibble: 69 × 7
   date           H     I     J     L     M     N
   <date>     <dbl> <dbl> <dbl> <dbl> <dbl> <dbl>
 1 2017-01-01  96.3  94.6 102.   95.6  96.6  95.4
 2 2017-02-01  95.8  94.9 104.   95.8  97.8  95.7
 3 2017-03-01  96.3  95.9 101.   95.8  98.3  95.6
 4 2017-04-01  97.6  97.0 102.   96.7  99.9  97.6
 5 2017-05-01  97.5  98.5  99.5  96.5 101.   98.7
 6 2017-06-01  98.4 101.   99.4  98.1  99.7 101. 
 7 2017-07-01 101.  104.   97.0 101.   98.6 103. 
 8 2017-08-01 103.  105.   97.2 101.   99.3 105. 
 9 2017-09-01 102.  104.   98.8 100.  101.  104. 
10 2017-10-01 102.  102.   99.7 105.  102.  101. 
# … with 59 more rows
…
